project_benches/proj_2/sim/transcript
# //  Questa Sim
# //  Version 2022.2_1 linux May 19 2022
# //
# //  Copyright 1991-2022 Mentor Graphics Corporation
# //  All Rights Reserved.
# //
# //  QuestaSim and its associated documentation contain trade
# //  secrets and commercial or financial information that are the property of
# //  Mentor Graphics Corporation and are privileged, confidential,
# //  and exempt from disclosure under the Freedom of Information Act,
# //  5 U.S.C. Section 552. Furthermore, this information
# //  is prohibited from disclosure under the Trade Secrets Act,
# //  18 U.S.C. Section 1905.
# //
# vsim -i -classdebug -msgmode both -do "set NoQuitOnFinish 1; do wave.do" optimized_debug_top_tb 
# Start time: 22:33:24 on Mar 29,2023
# Loading sv_std.std
# Loading work.i2c_if(fast)
# Loading work.typ_pkg(fast)
# Loading work.wb_if(fast)
# Loading work.ncsu_pkg(fast)
# Loading work.i2c_pkg(fast)
# Loading work.wb_pkg(fast)
# Loading work.i2cmb_env_pkg(fast)
# Loading work.top(fast)
# Loading work.i2c_if(fast__2)
# Loading work.wb_if(fast__2)
# Loading std.standard
# Loading std.textio(body)
# Loading ieee.std_logic_1164(body)
# Loading work.iicmb_m_wb(str)#1
# Loading work.wishbone(rtl)#1
# Loading ieee.numeric_std(body)
# Loading work.iicmb_pkg(body)
# Loading work.regblock(rtl)#1
# Loading work.iicmb_int_pkg(body)
# Loading work.iicmb_m(str)#1
# Loading work.mbyte(rtl)#1
# Loading work.mbit(rtl)#1
# Loading work.conditioner_mux(str)#1
# Loading work.conditioner(str)#1
# Loading work.filter(rtl)#1
# Loading work.bus_state(rtl)#1
# set NoQuitOnFinish 1
# 1
#  do wave.do
run -all
# ----------------------------------------------------------------
# //  NCSU Package 
# //  Version 1.0a
# ----------------------------------------------------------------
# 
# 
# NCSU_INFO:Time                    0:ncsu_component::build():  of tst.env.wb_agent.driver called
# NCSU_INFO:Time                    0:ncsu_component::build():  of tst.env.wb_agent.monitor called
# NCSU_INFO:Time                    0:ncsu_component::build():  of tst.env.i2c_agent.driver called
# NCSU_INFO:Time                    0:ncsu_component::build():  of tst.env.i2c_agent.monitor called
# NCSU_INFO:Time                    0:ncsu_component::build():  of tst.env.pred called
# NCSU_INFO:Time                    0:ncsu_component::build():  of tst.env.scbd called
# --------------------------------------------
# ----------------writing 0-31----------------
# --------------------------------------------
# tst.env.scbd nb_transport: expected transaction name:  transaction_count: 75 i2c_addr:0x22 op:0x0 i2c_compare_data:'{0, 1, 2, 3, 4, 5, 6, 7, 8, 9, 10, 11, 12, 13, 14, 15, 16, 17, 18, 19, 20, 21, 22, 23, 24, 25, 26, 27, 28, 29, 30, 31}
# tst.env.scbd       nb_put:   actual transaction name: i2c_monitor_trans transaction_count: 66 i2c_addr:0x22 op:0x0 i2c_compare_data:'{0, 1, 2, 3, 4, 5, 6, 7, 8, 9, 10, 11, 12, 13, 14, 15, 16, 17, 18, 19, 20, 21, 22, 23, 24, 25, 26, 27, 28, 29, 30, 31}
# tst.env.scbd i2c_write_transaction MATCH!
# ---------------------------------------------
# ---------------reading 100-131---------------
# ---------------------------------------------
# tst.env.scbd nb_transport: expected transaction name:  transaction_count: 180 i2c_addr:0x22 op:0x1 i2c_compare_data:'{100, 101, 102, 103, 104, 105, 106, 107, 108, 109, 110, 111, 112, 113, 114, 115, 116, 117, 118, 119, 120, 121, 122, 123, 124, 125, 126, 127, 128, 129, 130, 131}
# tst.env.scbd       nb_put:   actual transaction name: i2c_monitor_trans transaction_count: 175 i2c_addr:0x22 op:0x1 i2c_compare_data:'{100, 101, 102, 103, 104, 105, 106, 107, 108, 109, 110, 111, 112, 113, 114, 115, 116, 117, 118, 119, 120, 121, 122, 123, 124, 125, 126, 127, 128, 129, 130, 131}
# tst.env.scbd i2c_write_transaction MATCH!
# --------------------------------------------
# -------------alternating values-------------
# --------------------------------------------
# tst.env.scbd nb_transport: expected transaction name:  transaction_count: 285 i2c_addr:0x22 op:0x0 i2c_compare_data:'{64}
# tst.env.scbd       nb_put:   actual transaction name: i2c_monitor_trans transaction_count: 280 i2c_addr:0x22 op:0x0 i2c_compare_data:'{64}
# tst.env.scbd i2c_write_transaction MATCH!
# tst.env.scbd nb_transport: expected transaction name:  transaction_count: 297 i2c_addr:0x22 op:0x1 i2c_compare_data:'{63}
# tst.env.scbd       nb_put:   actual transaction name: i2c_monitor_trans transaction_count: 292 i2c_addr:0x22 op:0x1 i2c_compare_data:'{63}
# tst.env.scbd i2c_write_transaction MATCH!
# tst.env.scbd nb_transport: expected transaction name:  transaction_count: 309 i2c_addr:0x22 op:0x0 i2c_compare_data:'{65}
# tst.env.scbd       nb_put:   actual transaction name: i2c_monitor_trans transaction_count: 304 i2c_addr:0x22 op:0x0 i2c_compare_data:'{65}
# tst.env.scbd i2c_write_transaction MATCH!
# tst.env.scbd nb_transport: expected transaction name:  transaction_count: 321 i2c_addr:0x22 op:0x1 i2c_compare_data:'{62}
# tst.env.scbd       nb_put:   actual transaction name: i2c_monitor_trans transaction_count: 316 i2c_addr:0x22 op:0x1 i2c_compare_data:'{62}
# tst.env.scbd i2c_write_transaction MATCH!
# tst.env.scbd nb_transport: expected transaction name:  transaction_count: 333 i2c_addr:0x22 op:0x0 i2c_compare_data:'{66}
# tst.env.scbd       nb_put:   actual transaction name: i2c_monitor_trans transaction_count: 328 i2c_addr:0x22 op:0x0 i2c_compare_data:'{66}
# tst.env.scbd i2c_write_transaction MATCH!
# tst.env.scbd nb_transport: expected transaction name:  transaction_count: 345 i2c_addr:0x22 op:0x1 i2c_compare_data:'{61}
# tst.env.scbd       nb_put:   actual transaction name: i2c_monitor_trans transaction_count: 340 i2c_addr:0x22 op:0x1 i2c_compare_data:'{61}
# tst.env.scbd i2c_write_transaction MATCH!
# tst.env.scbd nb_transport: expected transaction name:  transaction_count: 357 i2c_addr:0x22 op:0x0 i2c_compare_data:'{67}
# tst.env.scbd       nb_put:   actual transaction name: i2c_monitor_trans transaction_count: 352 i2c_addr:0x22 op:0x0 i2c_compare_data:'{67}
# tst.env.scbd i2c_write_transaction MATCH!
# tst.env.scbd nb_transport: expected transaction name:  transaction_count: 369 i2c_addr:0x22 op:0x1 i2c_compare_data:'{60}
# tst.env.scbd       nb_put:   actual transaction name: i2c_monitor_trans transaction_count: 364 i2c_addr:0x22 op:0x1 i2c_compare_data:'{60}
# tst.env.scbd i2c_write_transaction MATCH!
# tst.env.scbd nb_transport: expected transaction name:  transaction_count: 381 i2c_addr:0x22 op:0x0 i2c_compare_data:'{68}
# tst.env.scbd       nb_put:   actual transaction name: i2c_monitor_trans transaction_count: 376 i2c_addr:0x22 op:0x0 i2c_compare_data:'{68}
# tst.env.scbd i2c_write_transaction MATCH!
# tst.env.scbd nb_transport: expected transaction name:  transaction_count: 393 i2c_addr:0x22 op:0x1 i2c_compare_data:'{59}
# tst.env.scbd       nb_put:   actual transaction name: i2c_monitor_trans transaction_count: 388 i2c_addr:0x22 op:0x1 i2c_compare_data:'{59}
# tst.env.scbd i2c_write_transaction MATCH!
# tst.env.scbd nb_transport: expected transaction name:  transaction_count: 405 i2c_addr:0x22 op:0x0 i2c_compare_data:'{69}
# tst.env.scbd       nb_put:   actual transaction name: i2c_monitor_trans transaction_count: 400 i2c_addr:0x22 op:0x0 i2c_compare_data:'{69}
# tst.env.scbd i2c_write_transaction MATCH!
# tst.env.scbd nb_transport: expected transaction name:  transaction_count: 417 i2c_addr:0x22 op:0x1 i2c_compare_data:'{58}
# tst.env.scbd       nb_put:   actual transaction name: i2c_monitor_trans transaction_count: 412 i2c_addr:0x22 op:0x1 i2c_compare_data:'{58}
# tst.env.scbd i2c_write_transaction MATCH!
# tst.env.scbd nb_transport: expected transaction name:  transaction_count: 429 i2c_addr:0x22 op:0x0 i2c_compare_data:'{70}
# tst.env.scbd       nb_put:   actual transaction name: i2c_monitor_trans transaction_count: 424 i2c_addr:0x22 op:0x0 i2c_compare_data:'{70}
# tst.env.scbd i2c_write_transaction MATCH!
# tst.env.scbd nb_transport: expected transaction name:  transaction_count: 441 i2c_addr:0x22 op:0x1 i2c_compare_data:'{57}
# tst.env.scbd       nb_put:   actual transaction name: i2c_monitor_trans transaction_count: 436 i2c_addr:0x22 op:0x1 i2c_compare_data:'{57}
# tst.env.scbd i2c_write_transaction MATCH!
# tst.env.scbd nb_transport: expected transaction name:  transaction_count: 453 i2c_addr:0x22 op:0x0 i2c_compare_data:'{71}
# tst.env.scbd       nb_put:   actual transaction name: i2c_monitor_trans transaction_count: 448 i2c_addr:0x22 op:0x0 i2c_compare_data:'{71}
# tst.env.scbd i2c_write_transaction MATCH!
# tst.env.scbd nb_transport: expected transaction name:  transaction_count: 465 i2c_addr:0x22 op:0x1 i2c_compare_data:'{56}
# tst.env.scbd       nb_put:   actual transaction name: i2c_monitor_trans transaction_count: 460 i2c_addr:0x22 op:0x1 i2c_compare_data:'{56}
# tst.env.scbd i2c_write_transaction MATCH!
# tst.env.scbd nb_transport: expected transaction name:  transaction_count: 477 i2c_addr:0x22 op:0x0 i2c_compare_data:'{72}
# tst.env.scbd       nb_put:   actual transaction name: i2c_monitor_trans transaction_count: 472 i2c_addr:0x22 op:0x0 i2c_compare_data:'{72}
# tst.env.scbd i2c_write_transaction MATCH!
# tst.env.scbd nb_transport: expected transaction name:  transaction_count: 489 i2c_addr:0x22 op:0x1 i2c_compare_data:'{55}
# tst.env.scbd       nb_put:   actual transaction name: i2c_monitor_trans transaction_count: 484 i2c_addr:0x22 op:0x1 i2c_compare_data:'{55}
# tst.env.scbd i2c_write_transaction MATCH!
# tst.env.scbd nb_transport: expected transaction name:  transaction_count: 501 i2c_addr:0x22 op:0x0 i2c_compare_data:'{73}
# tst.env.scbd       nb_put:   actual transaction name: i2c_monitor_trans transaction_count: 496 i2c_addr:0x22 op:0x0 i2c_compare_data:'{73}
# tst.env.scbd i2c_write_transaction MATCH!
# tst.env.scbd nb_transport: expected transaction name:  transaction_count: 513 i2c_addr:0x22 op:0x1 i2c_compare_data:'{54}
# tst.env.scbd       nb_put:   actual transaction name: i2c_monitor_trans transaction_count: 508 i2c_addr:0x22 op:0x1 i2c_compare_data:'{54}
# tst.env.scbd i2c_write_transaction MATCH!
# tst.env.scbd nb_transport: expected transaction name:  transaction_count: 525 i2c_addr:0x22 op:0x0 i2c_compare_data:'{74}
# tst.env.scbd       nb_put:   actual transaction name: i2c_monitor_trans transaction_count: 520 i2c_addr:0x22 op:0x0 i2c_compare_data:'{74}
# tst.env.scbd i2c_write_transaction MATCH!
# tst.env.scbd nb_transport: expected transaction name:  transaction_count: 537 i2c_addr:0x22 op:0x1 i2c_compare_data:'{53}
# tst.env.scbd       nb_put:   actual transaction name: i2c_monitor_trans transaction_count: 532 i2c_addr:0x22 op:0x1 i2c_compare_data:'{53}
# tst.env.scbd i2c_write_transaction MATCH!
# tst.env.scbd nb_transport: expected transaction name:  transaction_count: 549 i2c_addr:0x22 op:0x0 i2c_compare_data:'{75}
# tst.env.scbd       nb_put:   actual transaction name: i2c_monitor_trans transaction_count: 544 i2c_addr:0x22 op:0x0 i2c_compare_data:'{75}
# tst.env.scbd i2c_write_transaction MATCH!
# tst.env.scbd nb_transport: expected transaction name:  transaction_count: 561 i2c_addr:0x22 op:0x1 i2c_compare_data:'{52}
# tst.env.scbd       nb_put:   actual transaction name: i2c_monitor_trans transaction_count: 556 i2c_addr:0x22 op:0x1 i2c_compare_data:'{52}
# tst.env.scbd i2c_write_transaction MATCH!
# tst.env.scbd nb_transport: expected transaction name:  transaction_count: 573 i2c_addr:0x22 op:0x0 i2c_compare_data:'{76}
# tst.env.scbd       nb_put:   actual transaction name: i2c_monitor_trans transaction_count: 568 i2c_addr:0x22 op:0x0 i2c_compare_data:'{76}
# tst.env.scbd i2c_write_transaction MATCH!
# tst.env.scbd nb_transport: expected transaction name:  transaction_count: 585 i2c_addr:0x22 op:0x1 i2c_compare_data:'{51}
# tst.env.scbd       nb_put:   actual transaction name: i2c_monitor_trans transaction_count: 580 i2c_addr:0x22 op:0x1 i2c_compare_data:'{51}
# tst.env.scbd i2c_write_transaction MATCH!
# tst.env.scbd nb_transport: expected transaction name:  transaction_count: 597 i2c_addr:0x22 op:0x0 i2c_compare_data:'{77}
# tst.env.scbd       nb_put:   actual transaction name: i2c_monitor_trans transaction_count: 592 i2c_addr:0x22 op:0x0 i2c_compare_data:'{77}
# tst.env.scbd i2c_write_transaction MATCH!
# tst.env.scbd nb_transport: expected transaction name:  transaction_count: 609 i2c_addr:0x22 op:0x1 i2c_compare_data:'{50}
# tst.env.scbd       nb_put:   actual transaction name: i2c_monitor_trans transaction_count: 604 i2c_addr:0x22 op:0x1 i2c_compare_data:'{50}
# tst.env.scbd i2c_write_transaction MATCH!
# tst.env.scbd nb_transport: expected transaction name:  transaction_count: 621 i2c_addr:0x22 op:0x0 i2c_compare_data:'{78}
# tst.env.scbd       nb_put:   actual transaction name: i2c_monitor_trans transaction_count: 616 i2c_addr:0x22 op:0x0 i2c_compare_data:'{78}
# tst.env.scbd i2c_write_transaction MATCH!
# tst.env.scbd nb_transport: expected transaction name:  transaction_count: 633 i2c_addr:0x22 op:0x1 i2c_compare_data:'{49}
# tst.env.scbd       nb_put:   actual transaction name: i2c_monitor_trans transaction_count: 628 i2c_addr:0x22 op:0x1 i2c_compare_data:'{49}
# tst.env.scbd i2c_write_transaction MATCH!
# tst.env.scbd nb_transport: expected transaction name:  transaction_count: 645 i2c_addr:0x22 op:0x0 i2c_compare_data:'{79}
# tst.env.scbd       nb_put:   actual transaction name: i2c_monitor_trans transaction_count: 640 i2c_addr:0x22 op:0x0 i2c_compare_data:'{79}
# tst.env.scbd i2c_write_transaction MATCH!
# tst.env.scbd nb_transport: expected transaction name:  transaction_count: 657 i2c_addr:0x22 op:0x1 i2c_compare_data:'{48}
# tst.env.scbd       nb_put:   actual transaction name: i2c_monitor_trans transaction_count: 652 i2c_addr:0x22 op:0x1 i2c_compare_data:'{48}
# tst.env.scbd i2c_write_transaction MATCH!
# tst.env.scbd nb_transport: expected transaction name:  transaction_count: 669 i2c_addr:0x22 op:0x0 i2c_compare_data:'{80}
# tst.env.scbd       nb_put:   actual transaction name: i2c_monitor_trans transaction_count: 664 i2c_addr:0x22 op:0x0 i2c_compare_data:'{80}
# tst.env.scbd i2c_write_transaction MATCH!
# tst.env.scbd nb_transport: expected transaction name:  transaction_count: 681 i2c_addr:0x22 op:0x1 i2c_compare_data:'{47}
# tst.env.scbd       nb_put:   actual transaction name: i2c_monitor_trans transaction_count: 676 i2c_addr:0x22 op:0x1 i2c_compare_data:'{47}
# tst.env.scbd i2c_write_transaction MATCH!
# tst.env.scbd nb_transport: expected transaction name:  transaction_count: 693 i2c_addr:0x22 op:0x0 i2c_compare_data:'{81}
# tst.env.scbd       nb_put:   actual transaction name: i2c_monitor_trans transaction_count: 688 i2c_addr:0x22 op:0x0 i2c_compare_data:'{81}
# tst.env.scbd i2c_write_transaction MATCH!
# tst.env.scbd nb_transport: expected transaction name:  transaction_count: 705 i2c_addr:0x22 op:0x1 i2c_compare_data:'{46}
# tst.env.scbd       nb_put:   actual transaction name: i2c_monitor_trans transaction_count: 700 i2c_addr:0x22 op:0x1 i2c_compare_data:'{46}
# tst.env.scbd i2c_write_transaction MATCH!
# tst.env.scbd nb_transport: expected transaction name:  transaction_count: 717 i2c_addr:0x22 op:0x0 i2c_compare_data:'{82}
# tst.env.scbd       nb_put:   actual transaction name: i2c_monitor_trans transaction_count: 712 i2c_addr:0x22 op:0x0 i2c_compare_data:'{82}
# tst.env.scbd i2c_write_transaction MATCH!
# tst.env.scbd nb_transport: expected transaction name:  transaction_count: 729 i2c_addr:0x22 op:0x1 i2c_compare_data:'{45}
# tst.env.scbd       nb_put:   actual transaction name: i2c_monitor_trans transaction_count: 724 i2c_addr:0x22 op:0x1 i2c_compare_data:'{45}
# tst.env.scbd i2c_write_transaction MATCH!
# tst.env.scbd nb_transport: expected transaction name:  transaction_count: 741 i2c_addr:0x22 op:0x0 i2c_compare_data:'{83}
# tst.env.scbd       nb_put:   actual transaction name: i2c_monitor_trans transaction_count: 736 i2c_addr:0x22 op:0x0 i2c_compare_data:'{83}
# tst.env.scbd i2c_write_transaction MATCH!
# tst.env.scbd nb_transport: expected transaction name:  transaction_count: 753 i2c_addr:0x22 op:0x1 i2c_compare_data:'{44}
# tst.env.scbd       nb_put:   actual transaction name: i2c_monitor_trans transaction_count: 748 i2c_addr:0x22 op:0x1 i2c_compare_data:'{44}
# tst.env.scbd i2c_write_transaction MATCH!
# tst.env.scbd nb_transport: expected transaction name:  transaction_count: 765 i2c_addr:0x22 op:0x0 i2c_compare_data:'{84}
# tst.env.scbd       nb_put:   actual transaction name: i2c_monitor_trans transaction_count: 760 i2c_addr:0x22 op:0x0 i2c_compare_data:'{84}
# tst.env.scbd i2c_write_transaction MATCH!
# tst.env.scbd nb_transport: expected transaction name:  transaction_count: 777 i2c_addr:0x22 op:0x1 i2c_compare_data:'{43}
# tst.env.scbd       nb_put:   actual transaction name: i2c_monitor_trans transaction_count: 772 i2c_addr:0x22 op:0x1 i2c_compare_data:'{43}
# tst.env.scbd i2c_write_transaction MATCH!
# tst.env.scbd nb_transport: expected transaction name:  transaction_count: 789 i2c_addr:0x22 op:0x0 i2c_compare_data:'{85}
# tst.env.scbd       nb_put:   actual transaction name: i2c_monitor_trans transaction_count: 784 i2c_addr:0x22 op:0x0 i2c_compare_data:'{85}
# tst.env.scbd i2c_write_transaction MATCH!
# tst.env.scbd nb_transport: expected transaction name:  transaction_count: 801 i2c_addr:0x22 op:0x1 i2c_compare_data:'{42}
# tst.env.scbd       nb_put:   actual transaction name: i2c_monitor_trans transaction_count: 796 i2c_addr:0x22 op:0x1 i2c_compare_data:'{42}
# tst.env.scbd i2c_write_transaction MATCH!
# tst.env.scbd nb_transport: expected transaction name:  transaction_count: 813 i2c_addr:0x22 op:0x0 i2c_compare_data:'{86}
# tst.env.scbd       nb_put:   actual transaction name: i2c_monitor_trans transaction_count: 808 i2c_addr:0x22 op:0x0 i2c_compare_data:'{86}
# tst.env.scbd i2c_write_transaction MATCH!
# tst.env.scbd nb_transport: expected transaction name:  transaction_count: 825 i2c_addr:0x22 op:0x1 i2c_compare_data:'{41}
# tst.env.scbd       nb_put:   actual transaction name: i2c_monitor_trans transaction_count: 820 i2c_addr:0x22 op:0x1 i2c_compare_data:'{41}
# tst.env.scbd i2c_write_transaction MATCH!
# tst.env.scbd nb_transport: expected transaction name:  transaction_count: 837 i2c_addr:0x22 op:0x0 i2c_compare_data:'{87}
# tst.env.scbd       nb_put:   actual transaction name: i2c_monitor_trans transaction_count: 832 i2c_addr:0x22 op:0x0 i2c_compare_data:'{87}
# tst.env.scbd i2c_write_transaction MATCH!
# tst.env.scbd nb_transport: expected transaction name:  transaction_count: 849 i2c_addr:0x22 op:0x1 i2c_compare_data:'{40}
# tst.env.scbd       nb_put:   actual transaction name: i2c_monitor_trans transaction_count: 844 i2c_addr:0x22 op:0x1 i2c_compare_data:'{40}
# tst.env.scbd i2c_write_transaction MATCH!
# tst.env.scbd nb_transport: expected transaction name:  transaction_count: 861 i2c_addr:0x22 op:0x0 i2c_compare_data:'{88}
# tst.env.scbd       nb_put:   actual transaction name: i2c_monitor_trans transaction_count: 856 i2c_addr:0x22 op:0x0 i2c_compare_data:'{88}
# tst.env.scbd i2c_write_transaction MATCH!
# tst.env.scbd nb_transport: expected transaction name:  transaction_count: 873 i2c_addr:0x22 op:0x1 i2c_compare_data:'{39}
# tst.env.scbd       nb_put:   actual transaction name: i2c_monitor_trans transaction_count: 868 i2c_addr:0x22 op:0x1 i2c_compare_data:'{39}
# tst.env.scbd i2c_write_transaction MATCH!
# tst.env.scbd nb_transport: expected transaction name:  transaction_count: 885 i2c_addr:0x22 op:0x0 i2c_compare_data:'{89}
# tst.env.scbd       nb_put:   actual transaction name: i2c_monitor_trans transaction_count: 880 i2c_addr:0x22 op:0x0 i2c_compare_data:'{89}
# tst.env.scbd i2c_write_transaction MATCH!
# tst.env.scbd nb_transport: expected transaction name:  transaction_count: 897 i2c_addr:0x22 op:0x1 i2c_compare_data:'{38}
# tst.env.scbd       nb_put:   actual transaction name: i2c_monitor_trans transaction_count: 892 i2c_addr:0x22 op:0x1 i2c_compare_data:'{38}
# tst.env.scbd i2c_write_transaction MATCH!
# tst.env.scbd nb_transport: expected transaction name:  transaction_count: 909 i2c_addr:0x22 op:0x0 i2c_compare_data:'{90}
# tst.env.scbd       nb_put:   actual transaction name: i2c_monitor_trans transaction_count: 904 i2c_addr:0x22 op:0x0 i2c_compare_data:'{90}
# tst.env.scbd i2c_write_transaction MATCH!
# tst.env.scbd nb_transport: expected transaction name:  transaction_count: 921 i2c_addr:0x22 op:0x1 i2c_compare_data:'{37}
# tst.env.scbd       nb_put:   actual transaction name: i2c_monitor_trans transaction_count: 916 i2c_addr:0x22 op:0x1 i2c_compare_data:'{37}
# tst.env.scbd i2c_write_transaction MATCH!
# tst.env.scbd nb_transport: expected transaction name:  transaction_count: 933 i2c_addr:0x22 op:0x0 i2c_compare_data:'{91}
# tst.env.scbd       nb_put:   actual transaction name: i2c_monitor_trans transaction_count: 928 i2c_addr:0x22 op:0x0 i2c_compare_data:'{91}
# tst.env.scbd i2c_write_transaction MATCH!
# tst.env.scbd nb_transport: expected transaction name:  transaction_count: 945 i2c_addr:0x22 op:0x1 i2c_compare_data:'{36}
# tst.env.scbd       nb_put:   actual transaction name: i2c_monitor_trans transaction_count: 940 i2c_addr:0x22 op:0x1 i2c_compare_data:'{36}
# tst.env.scbd i2c_write_transaction MATCH!
# tst.env.scbd nb_transport: expected transaction name:  transaction_count: 957 i2c_addr:0x22 op:0x0 i2c_compare_data:'{92}
# tst.env.scbd       nb_put:   actual transaction name: i2c_monitor_trans transaction_count: 952 i2c_addr:0x22 op:0x0 i2c_compare_data:'{92}
# tst.env.scbd i2c_write_transaction MATCH!
# tst.env.scbd nb_transport: expected transaction name:  transaction_count: 969 i2c_addr:0x22 op:0x1 i2c_compare_data:'{35}
# tst.env.scbd       nb_put:   actual transaction name: i2c_monitor_trans transaction_count: 964 i2c_addr:0x22 op:0x1 i2c_compare_data:'{35}
# tst.env.scbd i2c_write_transaction MATCH!
# tst.env.scbd nb_transport: expected transaction name:  transaction_count: 981 i2c_addr:0x22 op:0x0 i2c_compare_data:'{93}
# tst.env.scbd       nb_put:   actual transaction name: i2c_monitor_trans transaction_count: 976 i2c_addr:0x22 op:0x0 i2c_compare_data:'{93}
# tst.env.scbd i2c_write_transaction MATCH!
# tst.env.scbd nb_transport: expected transaction name:  transaction_count: 993 i2c_addr:0x22 op:0x1 i2c_compare_data:'{34}
# tst.env.scbd       nb_put:   actual transaction name: i2c_monitor_trans transaction_count: 988 i2c_addr:0x22 op:0x1 i2c_compare_data:'{34}
# tst.env.scbd i2c_write_transaction MATCH!
# tst.env.scbd nb_transport: expected transaction name:  transaction_count: 1005 i2c_addr:0x22 op:0x0 i2c_compare_data:'{94}
# tst.env.scbd       nb_put:   actual transaction name: i2c_monitor_trans transaction_count: 1000 i2c_addr:0x22 op:0x0 i2c_compare_data:'{94}
# tst.env.scbd i2c_write_transaction MATCH!
# tst.env.scbd nb_transport: expected transaction name:  transaction_count: 1017 i2c_addr:0x22 op:0x1 i2c_compare_data:'{33}
# tst.env.scbd       nb_put:   actual transaction name: i2c_monitor_trans transaction_count: 1012 i2c_addr:0x22 op:0x1 i2c_compare_data:'{33}
# tst.env.scbd i2c_write_transaction MATCH!
# tst.env.scbd nb_transport: expected transaction name:  transaction_count: 1029 i2c_addr:0x22 op:0x0 i2c_compare_data:'{95}
# tst.env.scbd       nb_put:   actual transaction name: i2c_monitor_trans transaction_count: 1024 i2c_addr:0x22 op:0x0 i2c_compare_data:'{95}
# tst.env.scbd i2c_write_transaction MATCH!
# tst.env.scbd nb_transport: expected transaction name:  transaction_count: 1041 i2c_addr:0x22 op:0x1 i2c_compare_data:'{32}
# tst.env.scbd       nb_put:   actual transaction name: i2c_monitor_trans transaction_count: 1036 i2c_addr:0x22 op:0x1 i2c_compare_data:'{32}
# tst.env.scbd i2c_write_transaction MATCH!
# tst.env.scbd nb_transport: expected transaction name:  transaction_count: 1053 i2c_addr:0x22 op:0x0 i2c_compare_data:'{96}
# tst.env.scbd       nb_put:   actual transaction name: i2c_monitor_trans transaction_count: 1048 i2c_addr:0x22 op:0x0 i2c_compare_data:'{96}
# tst.env.scbd i2c_write_transaction MATCH!
# tst.env.scbd nb_transport: expected transaction name:  transaction_count: 1065 i2c_addr:0x22 op:0x1 i2c_compare_data:'{31}
# tst.env.scbd       nb_put:   actual transaction name: i2c_monitor_trans transaction_count: 1060 i2c_addr:0x22 op:0x1 i2c_compare_data:'{31}
# tst.env.scbd i2c_write_transaction MATCH!
# tst.env.scbd nb_transport: expected transaction name:  transaction_count: 1077 i2c_addr:0x22 op:0x0 i2c_compare_data:'{97}
# tst.env.scbd       nb_put:   actual transaction name: i2c_monitor_trans transaction_count: 1072 i2c_addr:0x22 op:0x0 i2c_compare_data:'{97}
# tst.env.scbd i2c_write_transaction MATCH!
# tst.env.scbd nb_transport: expected transaction name:  transaction_count: 1089 i2c_addr:0x22 op:0x1 i2c_compare_data:'{30}
# tst.env.scbd       nb_put:   actual transaction name: i2c_monitor_trans transaction_count: 1084 i2c_addr:0x22 op:0x1 i2c_compare_data:'{30}
# tst.env.scbd i2c_write_transaction MATCH!
# tst.env.scbd nb_transport: expected transaction name:  transaction_count: 1101 i2c_addr:0x22 op:0x0 i2c_compare_data:'{98}
# tst.env.scbd       nb_put:   actual transaction name: i2c_monitor_trans transaction_count: 1096 i2c_addr:0x22 op:0x0 i2c_compare_data:'{98}
# tst.env.scbd i2c_write_transaction MATCH!
# tst.env.scbd nb_transport: expected transaction name:  transaction_count: 1113 i2c_addr:0x22 op:0x1 i2c_compare_data:'{29}
# tst.env.scbd       nb_put:   actual transaction name: i2c_monitor_trans transaction_count: 1108 i2c_addr:0x22 op:0x1 i2c_compare_data:'{29}
# tst.env.scbd i2c_write_transaction MATCH!
# tst.env.scbd nb_transport: expected transaction name:  transaction_count: 1125 i2c_addr:0x22 op:0x0 i2c_compare_data:'{99}
# tst.env.scbd       nb_put:   actual transaction name: i2c_monitor_trans transaction_count: 1120 i2c_addr:0x22 op:0x0 i2c_compare_data:'{99}
# tst.env.scbd i2c_write_transaction MATCH!
# tst.env.scbd nb_transport: expected transaction name:  transaction_count: 1137 i2c_addr:0x22 op:0x1 i2c_compare_data:'{28}
# tst.env.scbd       nb_put:   actual transaction name: i2c_monitor_trans transaction_count: 1132 i2c_addr:0x22 op:0x1 i2c_compare_data:'{28}
# tst.env.scbd i2c_write_transaction MATCH!
# tst.env.scbd nb_transport: expected transaction name:  transaction_count: 1149 i2c_addr:0x22 op:0x0 i2c_compare_data:'{100}
# tst.env.scbd       nb_put:   actual transaction name: i2c_monitor_trans transaction_count: 1144 i2c_addr:0x22 op:0x0 i2c_compare_data:'{100}
# tst.env.scbd i2c_write_transaction MATCH!
# tst.env.scbd nb_transport: expected transaction name:  transaction_count: 1161 i2c_addr:0x22 op:0x1 i2c_compare_data:'{27}
# tst.env.scbd       nb_put:   actual transaction name: i2c_monitor_trans transaction_count: 1156 i2c_addr:0x22 op:0x1 i2c_compare_data:'{27}
# tst.env.scbd i2c_write_transaction MATCH!
# tst.env.scbd nb_transport: expected transaction name:  transaction_count: 1173 i2c_addr:0x22 op:0x0 i2c_compare_data:'{101}
# tst.env.scbd       nb_put:   actual transaction name: i2c_monitor_trans transaction_count: 1168 i2c_addr:0x22 op:0x0 i2c_compare_data:'{101}
# tst.env.scbd i2c_write_transaction MATCH!
# tst.env.scbd nb_transport: expected transaction name:  transaction_count: 1185 i2c_addr:0x22 op:0x1 i2c_compare_data:'{26}
# tst.env.scbd       nb_put:   actual transaction name: i2c_monitor_trans transaction_count: 1180 i2c_addr:0x22 op:0x1 i2c_compare_data:'{26}
# tst.env.scbd i2c_write_transaction MATCH!
# tst.env.scbd nb_transport: expected transaction name:  transaction_count: 1197 i2c_addr:0x22 op:0x0 i2c_compare_data:'{102}
# tst.env.scbd       nb_put:   actual transaction name: i2c_monitor_trans transaction_count: 1192 i2c_addr:0x22 op:0x0 i2c_compare_data:'{102}
# tst.env.scbd i2c_write_transaction MATCH!
# tst.env.scbd nb_transport: expected transaction name:  transaction_count: 1209 i2c_addr:0x22 op:0x1 i2c_compare_data:'{25}
# tst.env.scbd       nb_put:   actual transaction name: i2c_monitor_trans transaction_count: 1204 i2c_addr:0x22 op:0x1 i2c_compare_data:'{25}
# tst.env.scbd i2c_write_transaction MATCH!
# tst.env.scbd nb_transport: expected transaction name:  transaction_count: 1221 i2c_addr:0x22 op:0x0 i2c_compare_data:'{103}
# tst.env.scbd       nb_put:   actual transaction name: i2c_monitor_trans transaction_count: 1216 i2c_addr:0x22 op:0x0 i2c_compare_data:'{103}
# tst.env.scbd i2c_write_transaction MATCH!
# tst.env.scbd nb_transport: expected transaction name:  transaction_count: 1233 i2c_addr:0x22 op:0x1 i2c_compare_data:'{24}
# tst.env.scbd       nb_put:   actual transaction name: i2c_monitor_trans transaction_count: 1228 i2c_addr:0x22 op:0x1 i2c_compare_data:'{24}
# tst.env.scbd i2c_write_transaction MATCH!
# tst.env.scbd nb_transport: expected transaction name:  transaction_count: 1245 i2c_addr:0x22 op:0x0 i2c_compare_data:'{104}
# tst.env.scbd       nb_put:   actual transaction name: i2c_monitor_trans transaction_count: 1240 i2c_addr:0x22 op:0x0 i2c_compare_data:'{104}
# tst.env.scbd i2c_write_transaction MATCH!
# tst.env.scbd nb_transport: expected transaction name:  transaction_count: 1257 i2c_addr:0x22 op:0x1 i2c_compare_data:'{23}
